[
null,
{"id":1,"list":[{"code":122,"indent":0,"parameters":[1,1,0,3,5,-1,0]},{"code":122,"indent":0,"parameters":[2,2,0,3,5,-1,1]},{"code":111,"indent":0,"parameters":[0,1,1]},{"code":355,"indent":1,"parameters":["Yanfly.DespawnEventID($gameMap.LastSpawnedEventID())"]},{"code":355,"indent":1,"parameters":["Yanfly.SpawnEventTemplateAt('SpawnBeacon',0001, 0002, false)"]},{"code":122,"indent":1,"parameters":[3,3,0,4,"$gameMap.LastSpawnedEventID()"]},{"code":356,"indent":1,"parameters":["AltMovement collider set v[3] \"1\""]},{"code":121,"indent":1,"parameters":[1,1,0]},{"code":124,"indent":1,"parameters":[0,10]},{"code":121,"indent":1,"parameters":[2,2,1]},{"code":121,"indent":1,"parameters":[3,3,1]},{"code":121,"indent":1,"parameters":[4,4,1]},{"code":121,"indent":1,"parameters":[5,5,1]},{"code":0,"indent":1,"parameters":[]},{"code":412,"indent":0,"parameters":[]},{"code":0,"indent":0,"parameters":[]}],"name":"Drop Item","switchId":1,"trigger":0},
{"id":2,"list":[{"code":111,"indent":0,"parameters":[0,3,0]},{"code":356,"indent":1,"parameters":["move event \"enemy\" to event 0"]},{"code":355,"indent":1,"parameters":["console.log(\"CLEAR   \" + v[3]) "]},{"code":0,"indent":1,"parameters":[]},{"code":412,"indent":0,"parameters":[]},{"code":0,"indent":0,"parameters":[]}],"name":"ResetEnemyPath","switchId":1,"trigger":0},
{"id":3,"list":[{"code":0,"indent":0,"parameters":[]}],"name":"","switchId":1,"trigger":0},
{"id":4,"list":[{"code":0,"indent":0,"parameters":[]}],"name":"","switchId":1,"trigger":0}
]