[
null,
{"id":1,"expanded":false,"name":"MAP001","order":1,"parentId":0,"scrollX":817,"scrollY":438.5},
{"id":2,"expanded":false,"name":"EventSpawner","order":2,"parentId":0,"scrollX":817,"scrollY":438.5}
]