{
"autoplayBgm":false,"autoplayBgs":false,"battleback1Name":"","battleback2Name":"","bgm":{"name":"","pan":0,"pitch":100,"volume":90},"bgs":{"name":"","pan":0,"pitch":100,"volume":90},"disableDashing":false,"displayName":"","encounterList":[],"encounterStep":30,"height":13,"note":"","parallaxLoopX":false,"parallaxLoopY":false,"parallaxName":"","parallaxShow":true,"parallaxSx":0,"parallaxSy":0,"scrollType":0,"specifyBattleback":false,"tilesetId":10,"width":17,
"data":[0,0,0,0,0,0,6770,6780,6777,0,0,0,0,0,0,0,0,0,0,0,0,6787,6785,6791,7138,6793,6785,6789,0,0,0,0,0,0,0,0,0,0,6784,7138,7142,7144,7139,7138,6784,2666,0,0,0,0,0,0,0,0,0,6784,7145,7148,1553,7145,7148,6784,2656,0,0,0,0,0,0,0,0,0,6784,1553,1553,1553,1553,1553,6784,2656,0,0,0,0,0,0,0,0,0,6784,1553,1553,1553,1553,1553,6784,2656,0,0,0,0,0,0,0,0,0,6784,1553,1553,1553,1553,1553,6784,2656,0,0,0,0,0,0,0,0,0,6784,1553,1553,1553,1553,1553,6784,2656,0,0,0,0,0,0,0,0,0,6793,6785,6785,6785,6785,6785,6791,2656,0,0,0,0,0,0,0,0,0,7147,7146,7146,7146,7146,7146,7150,2656,0,0,0,0,0,0,0,0,0,0,0,0,0,0,0,0,2668,0,0,0,0,0,0,0,0,0,0,0,0,0,0,0,0,0,0,0,0,0,0,0,0,0,0,0,0,0,0,0,0,0,0,0,0,0,0,0,0,0,0,0,0,0,0,0,0,0,0,0,0,0,0,0,0,0,0,0,0,0,0,0,0,0,0,0,0,0,0,0,0,0,0,0,0,0,0,0,0,0,0,0,0,0,0,0,0,0,0,0,0,0,0,0,0,0,0,0,0,0,0,0,0,0,0,0,0,0,0,0,0,0,0,0,0,0,0,0,0,0,0,0,0,0,0,0,0,0,0,0,0,0,0,0,0,0,0,0,0,0,0,0,0,0,0,0,0,0,0,0,0,0,0,0,0,0,0,0,0,0,0,0,0,0,0,0,0,0,0,0,0,0,0,0,0,0,0,0,0,0,0,0,0,0,0,0,0,0,0,0,0,0,0,0,0,0,0,0,0,0,0,0,0,0,0,0,0,0,0,0,0,0,0,0,0,0,0,0,0,0,0,0,0,0,0,0,0,0,0,0,0,0,0,0,0,0,0,0,0,0,0,0,0,0,0,0,0,0,0,0,0,0,0,0,0,0,0,0,0,0,0,0,0,0,0,0,0,0,0,0,0,0,0,0,0,0,0,0,0,0,0,0,0,0,0,0,0,0,0,0,0,0,0,0,0,0,0,0,0,0,0,0,0,0,0,0,0,0,0,0,0,0,0,0,0,0,0,0,0,0,0,0,0,0,0,0,0,0,0,0,0,0,0,0,0,0,0,0,0,0,0,0,0,0,0,0,0,0,0,0,0,0,0,0,0,0,0,0,0,0,0,0,0,0,0,0,0,0,0,0,0,0,0,0,0,0,0,0,0,0,0,0,0,0,0,0,0,0,0,0,0,0,0,0,0,0,0,0,0,0,0,0,0,0,0,0,0,0,0,0,0,0,0,0,0,0,0,0,0,0,0,0,0,0,0,0,0,0,0,0,0,0,0,0,0,0,0,0,0,0,0,0,0,0,0,0,0,0,0,0,0,0,0,0,0,0,0,0,0,0,0,0,0,0,0,0,0,0,0,0,0,0,0,0,0,0,0,0,0,0,0,0,0,0,0,0,0,0,0,0,0,0,0,0,0,0,0,0,0,0,0,0,0,0,31,0,0,0,0,0,0,0,0,0,0,0,0,0,0,770,771,39,774,775,0,0,0,0,0,0,0,0,0,0,0,0,778,779,0,782,783,0,0,0,0,0,0,0,0,0,0,0,0,0,104,105,106,0,0,0,0,0,0,0,0,0,0,0,0,0,0,112,113,114,0,0,0,0,0,0,0,0,0,0,0,0,0,0,120,121,122,0,0,0,0,0,0,0,0,0,0,0,0,0,0,0,0,0,0,0,0,0,0,0,0,0,0,0,0,0,0,0,0,0,0,0,0,0,0,0,0,0,0,0,0,0,0,778,779,780,781,782,783,781,0,0,0,0,0,0,0,0,0,0,0,0,0,0,0,0,0,0,0,0,0,0,0,0,0,0,0,0,0,0,0,0,0,0,0,0,0,0,0,0,0,0,0,0,0,0,0,0,0,0,0,0,0,0,0,0,0,0,0,0,0,0,0,0,0,0,0,0,0,0,0,0,0,0,0,0,0,0,0,0,0,0,0,0,0,0,0,0,0,0,0,0,0,0,0,0,0,0,0,0,0,0,5,0,0,0,0,0,0,0,0,0,0,0,0,5,0,0,0,5,0,0,0,0,0,0,0,0,0,0,5,0,0,0,0,0,5,0,0,0,0,0,0,0,0,0,0,5,0,0,0,0,0,5,0,0,0,0,0,0,0,0,0,0,5,0,0,0,0,0,5,0,0,0,0,0,0,0,0,0,0,5,0,0,0,0,0,5,0,0,0,0,0,0,0,0,0,0,0,0,0,0,0,0,5,0,0,0,0,0,0,0,0,0,0,0,0,0,0,0,0,5,0,0,0,0,0,0,0,0,0,0,0,0,0,0,0,0,0,0,0,0,0,0,0,0,0,0,0,0,0,0,0,0,0,0,0,0,0,0,0,0,0,0,0,0,0,0,0,0,0,0,0,0,0,0,0,0,0,0,0,0,0,0,1,1,1,0,0,0,0,0,0,0,0,0,0,0,0,1,1,1,1,1,1,1,0,0,0,0,0,0,0,0,0,0,1,1,1,1,1,1,1,0,0,0,0,0,0,0,0,0,0,1,1,1,0,1,1,1,0,0,0,0,0,0,0,0,0,0,1,0,0,0,0,0,1,0,0,0,0,0,0,0,0,0,0,1,0,0,1,0,0,1,0,0,0,0,0,0,0,0,0,0,1,0,0,0,0,0,1,0,0,0,0,0,0,0,0,0,0,1,0,0,0,0,0,1,0,0,0,0,0,0,0,0,0,0,1,1,1,1,1,1,1,0,0,0,0,0,0,0,0,0,0,1,1,1,1,1,1,1,0,0,0,0,0,0,0,0,0,0,0,0,0,0,0,0,1,0,0,0,0,0,0,0,0,0,0,0,0,0,0,0,0,0,0,0,0,0,0,0,0,0,0,0,0,0,0,0,0,0,0,0,0,0,0,0,0],
"events":[
null,
{"id":1,"name":"Door 2","note":"<collider: box, 48, 50, 0, 5>","pages":[{"conditions":{"actorId":1,"actorValid":false,"itemId":1,"itemValid":false,"selfSwitchCh":"A","selfSwitchValid":false,"switch1Id":1,"switch1Valid":false,"switch2Id":1,"switch2Valid":false,"variableId":1,"variableValid":false,"variableValue":0},"directionFix":false,"image":{"tileId":0,"characterName":"","direction":4,"pattern":0,"characterIndex":3},"list":[{"code":101,"indent":0,"parameters":["",0,0,2]},{"code":401,"indent":0,"parameters":["You feel like you're missing something."]},{"code":0,"indent":0,"parameters":[]}],"moveFrequency":3,"moveRoute":{"list":[{"code":0,"parameters":[]}],"repeat":true,"skippable":false,"wait":false},"moveSpeed":3,"moveType":0,"priorityType":0,"stepAnime":false,"through":false,"trigger":1,"walkAnime":true},{"conditions":{"actorId":1,"actorValid":false,"itemId":1,"itemValid":false,"selfSwitchCh":"A","selfSwitchValid":false,"switch1Id":40,"switch1Valid":true,"switch2Id":1,"switch2Valid":false,"variableId":1,"variableValid":false,"variableValue":0},"directionFix":false,"image":{"tileId":38,"characterName":"","characterIndex":0,"direction":2,"pattern":0},"list":[{"code":101,"indent":0,"parameters":["",0,0,2]},{"code":401,"indent":0,"parameters":["Are you done here?"]},{"code":102,"indent":0,"parameters":[["Yes","No"],1,0,2,0]},{"code":402,"indent":0,"parameters":[0,"Yes"]},{"code":201,"indent":1,"parameters":[0,14,15,12,2,0]},{"code":0,"indent":1,"parameters":[]},{"code":402,"indent":0,"parameters":[1,"No"]},{"code":115,"indent":1,"parameters":[]},{"code":0,"indent":1,"parameters":[]},{"code":404,"indent":0,"parameters":[]},{"code":0,"indent":0,"parameters":[]}],"moveFrequency":3,"moveRoute":{"list":[{"code":0,"parameters":[]}],"repeat":true,"skippable":false,"wait":false},"moveSpeed":3,"moveType":0,"priorityType":0,"stepAnime":false,"through":false,"trigger":1,"walkAnime":true}],"x":7,"y":2},
{"id":2,"name":"Door 2","note":"<collider: box, 48, 50, 0, 5>","pages":[{"conditions":{"actorId":1,"actorValid":false,"itemId":1,"itemValid":false,"selfSwitchCh":"A","selfSwitchValid":false,"switch1Id":1,"switch1Valid":false,"switch2Id":1,"switch2Valid":false,"variableId":1,"variableValid":false,"variableValue":0},"directionFix":false,"image":{"tileId":0,"characterName":"","direction":4,"pattern":0,"characterIndex":3},"list":[{"code":101,"indent":0,"parameters":["",0,0,2]},{"code":401,"indent":0,"parameters":["You feel like you're missing something."]},{"code":0,"indent":0,"parameters":[]}],"moveFrequency":3,"moveRoute":{"list":[{"code":0,"parameters":[]}],"repeat":true,"skippable":false,"wait":false},"moveSpeed":3,"moveType":0,"priorityType":0,"stepAnime":false,"through":false,"trigger":1,"walkAnime":true},{"conditions":{"actorId":1,"actorValid":false,"itemId":1,"itemValid":false,"selfSwitchCh":"A","selfSwitchValid":false,"switch1Id":40,"switch1Valid":true,"switch2Id":1,"switch2Valid":false,"variableId":1,"variableValid":false,"variableValue":0},"directionFix":false,"image":{"tileId":30,"characterName":"","characterIndex":0,"direction":2,"pattern":0},"list":[{"code":101,"indent":0,"parameters":["",0,0,2]},{"code":401,"indent":0,"parameters":["Are you done here?"]},{"code":102,"indent":0,"parameters":[["Yes","No"],1,0,2,0]},{"code":402,"indent":0,"parameters":[0,"Yes"]},{"code":201,"indent":1,"parameters":[0,1,8,4,2,0]},{"code":0,"indent":1,"parameters":[]},{"code":402,"indent":0,"parameters":[1,"No"]},{"code":115,"indent":1,"parameters":[]},{"code":0,"indent":1,"parameters":[]},{"code":404,"indent":0,"parameters":[]},{"code":0,"indent":0,"parameters":[]}],"moveFrequency":3,"moveRoute":{"list":[{"code":0,"parameters":[]}],"repeat":true,"skippable":false,"wait":false},"moveSpeed":3,"moveType":0,"priorityType":0,"stepAnime":false,"through":false,"trigger":0,"walkAnime":true}],"x":7,"y":1},
{"id":3,"name":"EV003","note":"","pages":[{"conditions":{"actorId":1,"actorValid":false,"itemId":1,"itemValid":false,"selfSwitchCh":"A","selfSwitchValid":false,"switch1Id":1,"switch1Valid":false,"switch2Id":1,"switch2Valid":false,"variableId":1,"variableValid":false,"variableValue":0},"directionFix":false,"image":{"tileId":111,"characterName":"","characterIndex":0,"direction":2,"pattern":0},"list":[{"code":111,"indent":0,"parameters":[0,40,0]},{"code":101,"indent":1,"parameters":["",0,0,2]},{"code":401,"indent":1,"parameters":["There's nothing left to see here."]},{"code":115,"indent":1,"parameters":[]},{"code":0,"indent":1,"parameters":[]},{"code":412,"indent":0,"parameters":[]},{"code":355,"indent":0,"parameters":["ysp.VideoPlayer.loadVideo('Panic 2.webm')"]},{"code":655,"indent":0,"parameters":["ysp.VideoPlayer.loadVideo('Panic 3.webm')"]},{"code":655,"indent":0,"parameters":["ysp.VideoPlayer.loadVideo('Panic 4.webm')"]},{"code":655,"indent":0,"parameters":["ysp.VideoPlayer.loadVideo('Panic 5 1.webm')"]},{"code":655,"indent":0,"parameters":["ysp.VideoPlayer.loadVideo('Panic 5 2.webm')"]},{"code":655,"indent":0,"parameters":["ysp.VideoPlayer.loadVideo('Panic 6.webm')"]},{"code":655,"indent":0,"parameters":["ysp.VideoPlayer.loadVideo('Panic 7.webm')"]},{"code":655,"indent":0,"parameters":["ysp.VideoPlayer.loadVideo('Panic 8.webm')"]},{"code":112,"indent":0,"parameters":[]},{"code":111,"indent":1,"parameters":[12,"ysp.VideoPlayer.isReady()"]},{"code":113,"indent":2,"parameters":[]},{"code":0,"indent":2,"parameters":[]},{"code":411,"indent":1,"parameters":[]},{"code":0,"indent":2,"parameters":[]},{"code":412,"indent":1,"parameters":[]},{"code":0,"indent":1,"parameters":[]},{"code":413,"indent":0,"parameters":[]},{"code":221,"indent":0,"parameters":[]},{"code":355,"indent":0,"parameters":["ysp.VideoPlayer.newVideo('Panic 2.webm', 2)"]},{"code":655,"indent":0,"parameters":["ysp.VideoPlayer.newVideo('Panic 3.webm', 3)"]},{"code":655,"indent":0,"parameters":["ysp.VideoPlayer.newVideo('Panic 4.webm', 4)"]},{"code":655,"indent":0,"parameters":["ysp.VideoPlayer.newVideo('Panic 5 1.webm', 51)"]},{"code":655,"indent":0,"parameters":["ysp.VideoPlayer.newVideo('Panic 5 2.webm', 52)"]},{"code":655,"indent":0,"parameters":["ysp.VideoPlayer.newVideo('Panic 6.webm', 6)"]},{"code":655,"indent":0,"parameters":["ysp.VideoPlayer.newVideo('Panic 7.webm', 7)"]},{"code":655,"indent":0,"parameters":["ysp.VideoPlayer.newVideo('Panic 8.webm', 8)"]},{"code":230,"indent":0,"parameters":[60]},{"code":102,"indent":0,"parameters":[["Morgi?"],1,0,2,2]},{"code":402,"indent":0,"parameters":[0,"Morgi?"]},{"code":0,"indent":1,"parameters":[]},{"code":404,"indent":0,"parameters":[]},{"code":231,"indent":0,"parameters":[1,"Panic 1",0,0,0,0,52,52,255,0]},{"code":230,"indent":0,"parameters":[60]},{"code":222,"indent":0,"parameters":[]},{"code":101,"indent":0,"parameters":["",0,2,2]},{"code":401,"indent":0,"parameters":["You left me. You left me alone."]},{"code":221,"indent":0,"parameters":[]},{"code":235,"indent":0,"parameters":[1]},{"code":230,"indent":0,"parameters":[60]},{"code":102,"indent":0,"parameters":[["I never left you."],-1,0,2,2]},{"code":402,"indent":0,"parameters":[0,"I never left you."]},{"code":355,"indent":1,"parameters":["ysp.VideoPlayer.playVideoById(2)"]},{"code":222,"indent":1,"parameters":[]},{"code":230,"indent":1,"parameters":[120]},{"code":101,"indent":1,"parameters":["",0,2,2]},{"code":401,"indent":1,"parameters":["Yes you did. Where did you go?"]},{"code":0,"indent":1,"parameters":[]},{"code":404,"indent":0,"parameters":[]},{"code":221,"indent":0,"parameters":[]},{"code":355,"indent":0,"parameters":["ysp.VideoPlayer.stopVideoById(2)"]},{"code":102,"indent":0,"parameters":[["I... I don't know?","I didn't leave."],1,0,2,2]},{"code":402,"indent":0,"parameters":[0,"I... I don't know?"]},{"code":355,"indent":1,"parameters":["ysp.VideoPlayer.playVideoById(3)"]},{"code":222,"indent":1,"parameters":[]},{"code":230,"indent":1,"parameters":[120]},{"code":101,"indent":1,"parameters":["",0,2,2]},{"code":401,"indent":1,"parameters":["Of course. That's what a real friend says."]},{"code":221,"indent":1,"parameters":[]},{"code":0,"indent":1,"parameters":[]},{"code":402,"indent":0,"parameters":[1,"I didn't leave."]},{"code":355,"indent":1,"parameters":["ysp.VideoPlayer.playVideoById(3)"]},{"code":222,"indent":1,"parameters":[]},{"code":230,"indent":1,"parameters":[120]},{"code":101,"indent":1,"parameters":["",0,2,2]},{"code":401,"indent":1,"parameters":["Yes. You did. Stop trying to tell me you didn't."]},{"code":221,"indent":1,"parameters":[]},{"code":0,"indent":1,"parameters":[]},{"code":404,"indent":0,"parameters":[]},{"code":230,"indent":0,"parameters":[60]},{"code":102,"indent":0,"parameters":[["I'm sorry."],1,0,2,2]},{"code":402,"indent":0,"parameters":[0,"I'm sorry."]},{"code":355,"indent":1,"parameters":["ysp.VideoPlayer.stopVideoById(3)"]},{"code":655,"indent":1,"parameters":["ysp.VideoPlayer.playVideoById(4)"]},{"code":222,"indent":1,"parameters":[]},{"code":101,"indent":1,"parameters":["",0,2,2]},{"code":401,"indent":1,"parameters":["Why? You just said you didn't leave me. So why didn't"]},{"code":401,"indent":1,"parameters":["you come when I needed you?"]},{"code":0,"indent":1,"parameters":[]},{"code":404,"indent":0,"parameters":[]},{"code":221,"indent":0,"parameters":[]},{"code":355,"indent":0,"parameters":["ysp.VideoPlayer.stopVideoById(4)"]},{"code":230,"indent":0,"parameters":[60]},{"code":102,"indent":0,"parameters":[["I didn't know how to help you.","I knew I couldn't help you."],1,0,2,2]},{"code":402,"indent":0,"parameters":[0,"I didn't know how to help you."]},{"code":355,"indent":1,"parameters":["ysp.VideoPlayer.playVideoById(52)"]},{"code":222,"indent":1,"parameters":[]},{"code":101,"indent":1,"parameters":["",0,2,2]},{"code":401,"indent":1,"parameters":["You just had to be there for me, Benny. Ask me to"]},{"code":401,"indent":1,"parameters":["play, talk to me, SOMETHING."]},{"code":221,"indent":1,"parameters":[]},{"code":355,"indent":1,"parameters":["ysp.VideoPlayer.stopVideoById(52)"]},{"code":0,"indent":1,"parameters":[]},{"code":402,"indent":0,"parameters":[1,"I knew I couldn't help you."]},{"code":355,"indent":1,"parameters":["ysp.VideoPlayer.playVideoById(51)"]},{"code":222,"indent":1,"parameters":[]},{"code":101,"indent":1,"parameters":["",0,2,2]},{"code":401,"indent":1,"parameters":["SO YOU JUST LEFT ME ALONE?"]},{"code":221,"indent":1,"parameters":[]},{"code":355,"indent":1,"parameters":["ysp.VideoPlayer.stopVideoById(51)"]},{"code":0,"indent":1,"parameters":[]},{"code":404,"indent":0,"parameters":[]},{"code":230,"indent":0,"parameters":[60]},{"code":101,"indent":0,"parameters":["",0,2,2]},{"code":401,"indent":0,"parameters":["I just didn't want to be alone, at all."]},{"code":101,"indent":0,"parameters":["",0,2,2]},{"code":401,"indent":0,"parameters":["But I felt so, so alone. And I couldn't help it."]},{"code":355,"indent":0,"parameters":["ysp.VideoPlayer.playVideoById(6)"]},{"code":222,"indent":0,"parameters":[]},{"code":230,"indent":0,"parameters":[300]},{"code":101,"indent":0,"parameters":["",0,2,2]},{"code":401,"indent":0,"parameters":["I started thinking these things, and they sounded like"]},{"code":401,"indent":0,"parameters":["you. They spoke like you. But they hurt me instead."]},{"code":401,"indent":0,"parameters":["They didn't help."]},{"code":221,"indent":0,"parameters":[]},{"code":355,"indent":0,"parameters":["ysp.VideoPlayer.stopVideoById(6)"]},{"code":102,"indent":0,"parameters":[["You never called.","You should've talked to someone."],1,0,2,2]},{"code":402,"indent":0,"parameters":[0,"You never called."]},{"code":355,"indent":1,"parameters":["ysp.VideoPlayer.playVideoById(7)"]},{"code":222,"indent":1,"parameters":[]},{"code":101,"indent":1,"parameters":["",0,2,2]},{"code":401,"indent":1,"parameters":["I used to try. But I stopped trying as I got older."]},{"code":401,"indent":1,"parameters":["Why call someone who never comes?"]},{"code":0,"indent":1,"parameters":[]},{"code":402,"indent":0,"parameters":[1,"You should've talked to someone."]},{"code":355,"indent":1,"parameters":["ysp.VideoPlayer.playVideoById(7)"]},{"code":222,"indent":1,"parameters":[]},{"code":101,"indent":1,"parameters":["",0,2,2]},{"code":401,"indent":1,"parameters":["Who? Who would've listened if even my first friend "]},{"code":401,"indent":1,"parameters":["wouldn't?"]},{"code":0,"indent":1,"parameters":[]},{"code":404,"indent":0,"parameters":[]},{"code":221,"indent":0,"parameters":[]},{"code":355,"indent":0,"parameters":["ysp.VideoPlayer.stopVideoById(7)"]},{"code":101,"indent":0,"parameters":["",0,2,2]},{"code":401,"indent":0,"parameters":["Things only really got worse from there. As I got"]},{"code":401,"indent":0,"parameters":["older, the attacks got worse. "]},{"code":230,"indent":0,"parameters":[60]},{"code":102,"indent":0,"parameters":[["And now?"],1,0,2,2]},{"code":402,"indent":0,"parameters":[0,"And now?"]},{"code":355,"indent":1,"parameters":["ysp.VideoPlayer.playVideoById(8)"]},{"code":222,"indent":1,"parameters":[]},{"code":230,"indent":1,"parameters":[180]},{"code":101,"indent":1,"parameters":["",0,2,2]},{"code":401,"indent":1,"parameters":["Now I'm lucky if I'll get through two nights"]},{"code":401,"indent":1,"parameters":["without one."]},{"code":0,"indent":1,"parameters":[]},{"code":404,"indent":0,"parameters":[]},{"code":221,"indent":0,"parameters":[]},{"code":355,"indent":0,"parameters":["ysp.VideoPlayer.stopVideoById(8)"]},{"code":230,"indent":0,"parameters":[60]},{"code":101,"indent":0,"parameters":["",0,0,2]},{"code":401,"indent":0,"parameters":["You obtained the BLANKET."]},{"code":121,"indent":0,"parameters":[40,40,0]},{"code":222,"indent":0,"parameters":[]},{"code":0,"indent":0,"parameters":[]}],"moveFrequency":3,"moveRoute":{"list":[{"code":0,"parameters":[]}],"repeat":true,"skippable":false,"wait":false},"moveSpeed":3,"moveType":0,"priorityType":0,"stepAnime":false,"through":false,"trigger":0,"walkAnime":true}],"x":7,"y":5}
]
}